M48
; DRILL file {KiCad 5.1.9+dfsg1-1+deb11u1} date Thu Dec  8 11:33:27 2022
; FORMAT={-:-/ absolute / metric / decimal}
; #@! TF.CreationDate,2022-12-08T11:33:27+02:00
; #@! TF.GenerationSoftware,Kicad,Pcbnew,5.1.9+dfsg1-1+deb11u1
; #@! TF.FileFunction,Plated,1,2,PTH
FMAT,2
METRIC
T1C0.700
T2C0.800
T3C1.300
T4C4.300
%
G90
G05
T1
X27.05Y-140.822
X30.6Y-112.6
X32.9Y-124.6
X34.2Y-120.0
X34.8Y-141.4
X39.0Y-98.2
X40.6Y-59.1
X40.6Y-63.7
X41.1Y-98.5
X41.114Y-101.036
X43.0Y-96.2
X44.07Y-93.797
X45.6Y-131.2
X46.307Y-100.349
X47.0Y-81.472
X47.6Y-117.6
X50.3Y-98.89
X50.4Y-101.7
X51.1Y-127.6
X53.8Y-73.023
X54.05Y-138.054
X59.2Y-124.4
X59.5Y-43.2
X60.5Y-71.443
X61.313Y-44.85
X61.44Y-113.356
X61.5Y-96.8
X61.5Y-43.0
X61.5Y-69.0
X61.631Y-117.01
X61.9Y-115.1
X62.9Y-76.6
X64.05Y-57.7
X64.92Y-43.533
X65.167Y-75.47
X65.37Y-41.2
X65.688Y-72.212
X66.205Y-91.4
X66.463Y-88.8
X67.3Y-126.0
X67.383Y-118.666
X68.3Y-110.5
X68.7Y-123.75
X69.1Y-104.0
X69.2Y-138.2
X69.955Y-73.5
X69.98Y-60.418
X70.1Y-128.85
X70.3Y-113.6
X70.591Y-83.5
X70.6Y-41.3
X71.3Y-118.15
X71.777Y-132.637
X72.657Y-129.27
X73.238Y-96.161
X73.489Y-46.75
X73.688Y-90.75
X75.1Y-73.6
X75.644Y-40.74
X77.526Y-71.289
X77.55Y-29.65
X77.82Y-56.39
X78.1Y-33.53
X78.1Y-135.85
X78.35Y-52.626
X78.364Y-83.661
X79.183Y-125.99
X79.6Y-117.6
X79.8Y-129.13
X81.61Y-106.34
X83.142Y-70.85
X83.4Y-60.8
X83.4Y-95.7
X83.598Y-43.002
X83.6Y-24.6
X83.944Y-58.188
X84.7Y-128.2
X84.7Y-77.582
X84.75Y-119.8
X84.819Y-109.284
X85.391Y-103.901
X86.5Y-115.937
X86.566Y-72.009
X86.6Y-111.2
X87.05Y-83.6
X88.0Y-96.9
X88.189Y-102.8
X88.241Y-74.726
X89.848Y-68.398
X89.9Y-64.445
X89.98Y-45.85
X90.108Y-120.797
X90.193Y-123.305
X90.461Y-78.344
X90.754Y-119.17
X91.1Y-66.207
X91.2Y-36.4
X91.6Y-38.6
X91.9Y-53.5
X92.1Y-61.1
X92.5Y-111.2
X92.6Y-113.0
X93.599Y-96.554
X94.7Y-118.7
X95.286Y-88.157
X95.839Y-112.7
X96.52Y-71.136
X96.6Y-38.1
X96.615Y-118.648
X96.729Y-57.984
X97.15Y-47.532
X97.5Y-122.563
X99.087Y-82.287
X100.2Y-46.525
X100.537Y-84.309
X100.85Y-42.698
X101.014Y-72.335
X101.1Y-97.1
X101.625Y-55.997
X102.049Y-67.889
X102.804Y-63.895
X102.861Y-83.45
X103.096Y-62.169
X103.127Y-73.695
X103.829Y-52.852
X104.0Y-30.9
X104.3Y-104.801
X105.261Y-83.127
X105.5Y-111.8
X105.629Y-69.966
X106.581Y-75.63
X106.602Y-127.2
X107.229Y-69.05
X107.86Y-98.437
X108.878Y-49.46
X109.667Y-70.265
X109.978Y-43.648
X110.1Y-29.6
X110.1Y-36.1
X110.25Y-64.0
X111.408Y-70.445
X113.5Y-43.0
X114.1Y-102.6
X114.463Y-118.181
X114.8Y-75.66
X114.807Y-70.445
X114.888Y-33.566
X115.25Y-38.47
X116.246Y-40.947
X116.538Y-26.162
X116.6Y-118.15
X116.75Y-43.75
X117.524Y-74.2
X117.569Y-57.62
X118.022Y-53.99
X118.08Y-69.061
X118.495Y-60.301
X118.6Y-80.8
X118.6Y-118.8
X119.7Y-93.196
X119.83Y-69.05
X121.32Y-70.34
X121.74Y-117.454
X122.7Y-128.7
X122.856Y-57.668
X123.6Y-60.1
X126.6Y-143.85
X127.1Y-79.6
X127.25Y-52.732
X127.355Y-34.988
X127.6Y-50.1
X127.9Y-37.6
X128.352Y-74.051
X128.6Y-85.7
X130.3Y-138.3
X130.97Y-63.563
X131.0Y-75.784
X131.3Y-43.65
X133.6Y-69.0
X135.2Y-79.4
X135.39Y-39.81
X135.9Y-113.5
X136.251Y-57.849
X136.6Y-88.2
X139.0Y-95.864
X141.888Y-109.4
X143.1Y-135.9
T2
X19.84Y-100.8
X19.85Y-103.95
X20.1Y-130.68
X20.1Y-138.3
X20.24Y-124.0
X20.24Y-127.4
X20.44Y-107.58
X20.44Y-115.2
X20.5Y-88.98
X20.5Y-96.6
X22.64Y-130.68
X22.64Y-138.3
X22.98Y-107.58
X22.98Y-115.2
X23.04Y-88.98
X23.04Y-96.6
X23.22Y-119.6
X25.18Y-130.68
X25.18Y-138.3
X25.52Y-107.58
X25.52Y-115.2
X25.58Y-88.98
X25.58Y-96.6
X25.76Y-119.6
X27.72Y-130.68
X27.72Y-138.3
X28.06Y-107.58
X28.06Y-115.2
X28.3Y-119.6
X30.0Y-100.8
X30.01Y-103.95
X30.26Y-130.68
X30.26Y-138.3
X30.4Y-124.0
X30.4Y-127.4
X30.44Y-156.35
X30.6Y-107.58
X30.6Y-115.2
X30.6Y-143.73
X30.6Y-151.35
X32.8Y-130.68
X32.8Y-138.3
X33.14Y-107.58
X33.14Y-115.2
X33.14Y-143.73
X33.14Y-151.35
X33.3Y-122.5
X33.3Y-127.5
X35.34Y-130.68
X35.34Y-138.3
X35.68Y-107.58
X35.68Y-115.2
X35.68Y-143.73
X35.68Y-151.35
X36.55Y-124.9
X37.88Y-130.68
X37.88Y-138.3
X38.04Y-20.4
X38.7Y-112.7
X38.7Y-115.2
X39.05Y-124.9
X40.6Y-142.35
X40.6Y-152.51
X40.6Y-156.35
X41.0Y-135.8
X41.0Y-138.3
X42.6Y-108.85
X42.6Y-111.39
X42.6Y-113.93
X42.6Y-116.47
X42.6Y-119.01
X42.6Y-121.55
X42.6Y-124.09
X45.44Y-156.35
X45.6Y-127.85
X45.6Y-143.73
X45.6Y-151.35
X48.1Y-127.85
X48.14Y-143.73
X48.14Y-151.35
X48.2Y-20.4
X49.2Y-130.58
X49.2Y-138.2
X50.22Y-108.85
X50.22Y-111.39
X50.22Y-113.93
X50.22Y-116.47
X50.22Y-119.01
X50.22Y-121.55
X50.22Y-124.09
X50.6Y-71.04
X50.6Y-81.2
X50.68Y-143.73
X50.68Y-151.35
X51.1Y-85.2
X51.6Y-129.85
X51.6Y-137.85
X53.6Y-103.69
X53.6Y-113.85
X54.5Y-88.0
X54.5Y-98.16
X54.6Y-123.85
X54.6Y-142.35
X54.6Y-152.51
X55.6Y-71.1
X55.6Y-156.35
X56.6Y-105.85
X56.6Y-108.35
X57.1Y-112.85
X57.3Y-87.98
X57.3Y-95.6
X58.1Y-71.1
X59.44Y-156.35
X59.6Y-112.85
X59.6Y-143.73
X59.6Y-151.35
X60.1Y-87.9
X60.1Y-98.06
X60.3Y-101.5
X60.48Y-51.36
X60.48Y-53.9
X60.48Y-56.44
X60.48Y-58.98
X60.48Y-61.52
X60.48Y-64.06
X60.48Y-66.6
X60.6Y-25.9
X60.6Y-28.44
X60.6Y-30.98
X60.6Y-33.52
X60.6Y-36.06
X60.6Y-38.6
X60.6Y-41.14
X61.26Y-85.2
X61.76Y-129.85
X61.76Y-137.85
X62.14Y-143.73
X62.14Y-151.35
X62.5Y-107.5
X62.5Y-110.0
X62.6Y-120.85
X62.8Y-101.5
X63.9Y-78.6
X63.9Y-81.1
X64.0Y-93.6
X64.0Y-96.1
X64.6Y-135.35
X64.6Y-137.85
X64.68Y-143.73
X64.68Y-151.35
X64.76Y-123.85
X65.1Y-120.85
X65.4Y-105.1
X65.4Y-115.26
X65.6Y-48.4
X66.86Y-78.6
X66.86Y-86.22
X66.86Y-93.6
X66.86Y-101.22
X68.1Y-20.6
X68.1Y-23.1
X68.1Y-48.4
X68.1Y-51.36
X68.1Y-53.9
X68.1Y-56.44
X68.1Y-58.98
X68.1Y-61.52
X68.1Y-64.06
X68.1Y-66.6
X68.22Y-25.9
X68.22Y-28.44
X68.22Y-30.98
X68.22Y-33.52
X68.22Y-36.06
X68.22Y-38.6
X68.22Y-41.14
X68.3Y-107.68
X68.3Y-115.3
X68.6Y-142.35
X68.6Y-152.51
X69.4Y-78.6
X69.4Y-86.22
X69.4Y-93.6
X69.4Y-101.22
X69.6Y-156.35
X70.1Y-135.1
X71.15Y-105.54
X71.15Y-115.7
X71.94Y-78.6
X71.94Y-86.22
X71.94Y-93.6
X71.94Y-101.22
X73.44Y-156.35
X73.48Y-25.86
X73.48Y-28.4
X73.48Y-30.94
X73.48Y-33.48
X73.48Y-36.02
X73.48Y-38.56
X73.48Y-41.1
X73.48Y-51.36
X73.48Y-53.9
X73.48Y-56.44
X73.48Y-58.98
X73.48Y-61.52
X73.48Y-64.06
X73.48Y-66.6
X73.6Y-143.73
X73.6Y-151.35
X74.35Y-109.85
X74.35Y-112.39
X74.35Y-114.93
X74.35Y-117.47
X74.35Y-120.01
X74.35Y-122.55
X74.35Y-125.09
X74.35Y-128.35
X74.48Y-78.6
X74.48Y-86.22
X74.48Y-93.6
X74.48Y-101.22
X76.14Y-143.73
X76.14Y-151.35
X76.85Y-128.35
X77.02Y-78.6
X77.02Y-86.22
X77.02Y-93.6
X77.02Y-101.22
X77.6Y-138.1
X78.6Y-48.35
X78.68Y-143.73
X78.68Y-151.35
X79.56Y-78.6
X79.56Y-86.22
X79.56Y-93.6
X79.56Y-101.22
X80.1Y-138.1
X80.26Y-135.1
X81.1Y-20.6
X81.1Y-23.1
X81.1Y-25.86
X81.1Y-28.4
X81.1Y-30.94
X81.1Y-33.48
X81.1Y-36.02
X81.1Y-38.56
X81.1Y-41.1
X81.1Y-48.35
X81.1Y-51.36
X81.1Y-53.9
X81.1Y-56.44
X81.1Y-58.98
X81.1Y-61.52
X81.1Y-64.06
X81.1Y-66.6
X81.97Y-109.85
X81.97Y-112.39
X81.97Y-114.93
X81.97Y-117.47
X81.97Y-120.01
X81.97Y-122.55
X81.97Y-125.09
X82.1Y-78.6
X82.1Y-86.22
X82.1Y-93.6
X82.1Y-101.22
X82.6Y-142.1
X82.6Y-152.26
X83.6Y-156.35
X84.1Y-135.6
X84.1Y-138.1
X86.48Y-25.86
X86.48Y-28.4
X86.48Y-30.94
X86.48Y-33.48
X86.48Y-36.02
X86.48Y-38.56
X86.48Y-41.1
X86.98Y-51.36
X86.98Y-53.9
X86.98Y-56.44
X86.98Y-58.98
X86.98Y-61.52
X86.98Y-64.06
X86.98Y-66.6
X87.44Y-156.35
X87.6Y-122.85
X87.6Y-125.39
X87.6Y-127.93
X87.6Y-130.47
X87.6Y-133.01
X87.6Y-135.55
X87.6Y-138.09
X87.6Y-143.73
X87.6Y-151.35
X90.14Y-143.73
X90.14Y-151.35
X92.1Y-48.35
X92.68Y-143.73
X92.68Y-151.35
X93.1Y-75.94
X93.1Y-86.1
X93.1Y-90.44
X93.1Y-100.6
X93.1Y-104.94
X93.1Y-115.1
X94.1Y-20.6
X94.1Y-23.1
X94.1Y-25.86
X94.1Y-28.4
X94.1Y-30.94
X94.1Y-33.48
X94.1Y-36.02
X94.1Y-38.56
X94.1Y-41.1
X94.6Y-48.35
X94.6Y-51.36
X94.6Y-53.9
X94.6Y-56.44
X94.6Y-58.98
X94.6Y-61.52
X94.6Y-64.06
X94.6Y-66.6
X95.22Y-122.85
X95.22Y-125.39
X95.22Y-127.93
X95.22Y-130.47
X95.22Y-133.01
X95.22Y-135.55
X95.22Y-138.09
X96.6Y-78.48
X96.6Y-86.1
X96.6Y-92.98
X96.6Y-100.6
X96.6Y-107.48
X96.6Y-115.1
X97.1Y-142.1
X97.1Y-152.26
X97.6Y-156.35
X99.1Y-89.9
X99.1Y-104.35
X99.14Y-78.48
X99.14Y-86.1
X99.14Y-92.98
X99.14Y-100.6
X99.14Y-107.48
X99.14Y-115.1
X99.48Y-25.86
X99.48Y-28.4
X99.48Y-30.94
X99.48Y-33.48
X99.48Y-36.02
X99.48Y-38.56
X99.48Y-41.1
X99.48Y-51.36
X99.48Y-53.9
X99.48Y-56.44
X99.48Y-58.98
X99.48Y-61.52
X99.48Y-64.06
X99.48Y-66.6
X100.0Y-122.14
X100.0Y-132.3
X100.1Y-134.75
X100.1Y-139.75
X101.44Y-156.35
X101.6Y-143.73
X101.6Y-151.35
X101.68Y-78.48
X101.68Y-86.1
X101.68Y-92.98
X101.68Y-100.6
X101.68Y-107.48
X101.68Y-115.1
X102.9Y-122.58
X102.9Y-130.2
X104.14Y-143.73
X104.14Y-151.35
X104.22Y-78.48
X104.22Y-86.1
X104.22Y-92.98
X104.22Y-100.6
X104.22Y-107.48
X104.22Y-115.1
X104.565Y-139.2
X104.6Y-48.35
X105.8Y-122.6
X105.8Y-132.76
X106.68Y-143.73
X106.68Y-151.35
X106.76Y-78.48
X106.76Y-86.1
X106.76Y-92.98
X106.76Y-100.6
X106.76Y-107.48
X106.76Y-115.1
X107.1Y-20.6
X107.1Y-23.1
X107.1Y-25.86
X107.1Y-28.4
X107.1Y-30.94
X107.1Y-33.48
X107.1Y-36.02
X107.1Y-38.56
X107.1Y-41.1
X107.1Y-48.35
X107.1Y-51.36
X107.1Y-53.9
X107.1Y-56.44
X107.1Y-58.98
X107.1Y-61.52
X107.1Y-64.06
X107.1Y-66.6
X108.9Y-122.6
X108.9Y-132.76
X109.26Y-89.9
X109.26Y-104.35
X109.3Y-78.48
X109.3Y-86.1
X109.3Y-92.98
X109.3Y-100.6
X109.3Y-107.48
X109.3Y-115.1
X110.6Y-142.35
X110.6Y-152.51
X111.6Y-156.35
X111.8Y-122.58
X111.8Y-130.2
X111.8Y-132.8
X111.8Y-135.3
X111.84Y-78.48
X111.84Y-86.1
X111.84Y-92.98
X111.84Y-100.6
X111.84Y-107.48
X111.84Y-115.1
X112.48Y-25.86
X112.48Y-28.4
X112.48Y-30.94
X112.48Y-33.48
X112.48Y-36.02
X112.48Y-38.56
X112.48Y-41.1
X112.6Y-51.36
X112.6Y-53.9
X112.6Y-56.44
X112.6Y-58.98
X112.6Y-61.52
X112.6Y-64.06
X112.6Y-66.6
X114.7Y-122.6
X114.7Y-132.76
X114.725Y-139.2
X115.44Y-156.35
X115.6Y-95.6
X115.6Y-98.1
X115.6Y-110.1
X115.6Y-112.6
X115.6Y-143.73
X115.6Y-151.35
X116.6Y-81.1
X116.6Y-83.6
X117.6Y-122.6
X117.6Y-130.22
X117.61Y-48.41
X117.7Y-133.4
X117.7Y-135.9
X118.14Y-143.73
X118.14Y-151.35
X119.14Y-77.2
X120.1Y-20.6
X120.1Y-23.1
X120.1Y-25.86
X120.1Y-28.4
X120.1Y-30.94
X120.1Y-33.48
X120.1Y-36.02
X120.1Y-38.56
X120.1Y-41.1
X120.1Y-135.7
X120.11Y-48.41
X120.22Y-51.36
X120.22Y-53.9
X120.22Y-56.44
X120.22Y-58.98
X120.22Y-61.52
X120.22Y-64.06
X120.22Y-66.6
X120.5Y-122.6
X120.5Y-132.76
X120.68Y-143.73
X120.68Y-151.35
X120.724Y-109.874
X120.724Y-112.374
X122.1Y-92.1
X122.1Y-102.26
X122.6Y-135.7
X123.772Y-105.262
X123.772Y-115.422
X124.6Y-142.35
X124.6Y-152.51
X125.48Y-25.86
X125.48Y-28.4
X125.48Y-30.94
X125.48Y-33.48
X125.48Y-36.02
X125.48Y-38.56
X125.48Y-41.1
X125.48Y-51.36
X125.48Y-53.9
X125.48Y-56.44
X125.48Y-58.98
X125.48Y-61.52
X125.48Y-64.06
X125.48Y-66.6
X125.6Y-156.35
X125.78Y-122.86
X125.78Y-125.4
X125.78Y-127.94
X125.78Y-130.48
X125.78Y-133.02
X125.78Y-135.56
X125.78Y-138.1
X125.98Y-86.36
X125.98Y-88.9
X125.98Y-91.44
X125.98Y-93.98
X125.98Y-96.52
X125.98Y-99.06
X125.98Y-101.6
X128.6Y-82.6
X129.3Y-77.2
X129.44Y-156.35
X129.6Y-143.73
X129.6Y-151.35
X130.6Y-108.6
X131.1Y-82.6
X132.14Y-143.73
X132.14Y-151.35
X133.1Y-20.6
X133.1Y-23.1
X133.1Y-25.86
X133.1Y-28.4
X133.1Y-30.94
X133.1Y-33.48
X133.1Y-36.02
X133.1Y-38.56
X133.1Y-41.1
X133.1Y-46.1
X133.1Y-48.6
X133.1Y-51.36
X133.1Y-53.9
X133.1Y-56.44
X133.1Y-58.98
X133.1Y-61.52
X133.1Y-64.06
X133.1Y-66.6
X133.1Y-108.6
X133.4Y-122.86
X133.4Y-125.4
X133.4Y-127.94
X133.4Y-130.48
X133.4Y-133.02
X133.4Y-135.56
X133.4Y-138.1
X133.6Y-86.36
X133.6Y-88.9
X133.6Y-91.44
X133.6Y-93.98
X133.6Y-96.52
X133.6Y-99.06
X133.6Y-101.6
X133.8Y-75.98
X133.8Y-83.6
X134.68Y-143.73
X134.68Y-151.35
X138.6Y-142.35
X138.6Y-152.51
X139.6Y-75.8
X139.6Y-103.2
X139.6Y-156.35
X139.72Y-51.7
X139.72Y-59.32
X139.82Y-79.3
X139.82Y-86.92
X139.82Y-106.7
X139.82Y-114.32
X139.82Y-131.2
X139.82Y-138.82
X140.0Y-48.2
X140.1Y-127.7
X142.1Y-75.8
X142.1Y-103.2
X142.26Y-51.7
X142.26Y-59.32
X142.36Y-79.3
X142.36Y-86.92
X142.36Y-106.7
X142.36Y-114.32
X142.36Y-131.2
X142.36Y-138.82
X142.5Y-48.2
X142.6Y-127.7
X142.6Y-142.2
X142.6Y-147.2
X142.9Y-117.7
X142.9Y-122.7
X143.0Y-62.7
X143.0Y-67.7
X143.1Y-90.3
X143.1Y-95.3
X144.8Y-51.7
X144.8Y-59.32
X144.9Y-79.3
X144.9Y-86.92
X144.9Y-106.7
X144.9Y-114.32
X144.9Y-131.2
X144.9Y-138.82
X146.0Y-63.2
X146.0Y-66.7
X146.1Y-142.7
X146.1Y-146.2
X146.4Y-90.8
X146.4Y-94.3
X146.4Y-118.2
X146.4Y-121.7
X147.34Y-51.7
X147.34Y-59.32
X147.44Y-79.3
X147.44Y-86.92
X147.44Y-106.7
X147.44Y-114.32
X147.44Y-131.2
X147.44Y-138.82
X148.0Y-71.2
X148.1Y-150.7
X148.6Y-98.8
X148.6Y-126.2
X149.88Y-51.7
X149.88Y-59.32
X149.98Y-79.3
X149.98Y-86.92
X149.98Y-106.7
X149.98Y-114.32
X149.98Y-131.2
X149.98Y-138.82
X150.54Y-71.2
X150.64Y-150.7
X151.14Y-98.8
X151.14Y-126.2
X152.42Y-51.7
X152.42Y-59.32
X152.52Y-79.3
X152.52Y-86.92
X152.52Y-106.7
X152.52Y-114.32
X152.52Y-131.2
X152.52Y-138.82
X153.08Y-71.2
X153.18Y-150.7
X153.68Y-98.8
X153.68Y-126.2
X154.96Y-51.7
X154.96Y-59.32
X155.06Y-79.3
X155.06Y-86.92
X155.06Y-106.7
X155.06Y-114.32
X155.06Y-131.2
X155.06Y-138.82
X156.16Y-63.2
X156.16Y-66.7
X156.26Y-142.7
X156.26Y-146.2
X156.56Y-90.8
X156.56Y-94.3
X156.56Y-118.2
X156.56Y-121.7
X157.5Y-51.7
X157.5Y-59.32
X157.6Y-79.3
X157.6Y-86.92
X157.6Y-106.7
X157.6Y-114.32
X157.6Y-131.2
X157.6Y-138.82
T3
X23.5Y-35.5
X23.5Y-40.5
X23.5Y-45.5
X23.5Y-50.5
X23.5Y-55.5
X23.5Y-60.5
X23.5Y-65.5
X23.5Y-70.5
X23.6Y-75.5
X23.6Y-80.5
X30.5Y-30.1
X30.5Y-47.1
X30.5Y-64.1
X30.5Y-81.1
X32.5Y-24.1
X32.5Y-36.1
X32.5Y-41.1
X32.5Y-53.1
X32.5Y-58.1
X32.5Y-70.1
X32.5Y-75.1
X32.5Y-87.1
X33.0Y-97.3
X35.0Y-91.3
X35.0Y-103.3
X44.7Y-24.1
X44.7Y-36.1
X44.7Y-41.1
X44.7Y-53.1
X44.7Y-58.1
X44.7Y-70.1
X44.7Y-75.1
X44.7Y-87.1
X47.2Y-91.3
X47.2Y-103.3
X51.0Y-31.22
X51.0Y-36.3
X53.6Y-44.6
X53.6Y-67.1
X57.6Y-75.56
X57.6Y-78.1
X57.6Y-80.64
X75.5Y-163.5
X80.5Y-163.5
X85.5Y-163.5
X90.5Y-163.5
X95.5Y-163.5
X100.5Y-163.5
X105.5Y-163.5
X110.5Y-163.5
X115.5Y-163.5
X120.5Y-163.5
T4
X23.0Y-21.6
X23.0Y-164.0
X154.0Y-21.8
X154.0Y-164.0
T0
M30
